chr	bin_start	bin_end	bin_count	rpkm
chr1	130000	140000	2677	1543426891821.8
chr1	260000	270000	2818	1624690219583.89
chr1	390000	400000	2714	1564751311163.62
chr1	520000	530000	1795	1035098841565.33
chr1	10000	20000	5203	2999250763644.75
chr1	30000	40000	2144	1236239986167.94
