chr	bin_start	bin_end	bin_count	stage	rpkm_fold_change
chr1	130000	140000	2677	stage1	-0.3656974429
chr1	260000	270000	2818	stage1	-0.3662091277
chr1	390000	400000	2714	stage1	-0.3662287244
chr1	520000	530000	1795	stage1	0.9530210955
chr1	10000	20000	5203	stage1	0.2189878564
chr1	30000	40000	2144	stage1	0.6322862115
