chr1	10000	20001	chr1	20000	30001	1552.067709	chr1	11963	19401	+	cat1	feature1	extra_col1
chr1	10000	20001	chr1	20000	30001	1552.067709	chr1	12351	20005	+	cat2	feature2	extra_col2
chr1	10000	20001	chr1	20000	30001	1552.067709	chr1	17914	27247	-	cat3	feature3	extra_col3
chr1	10000	20001	chr1	20000	30001	1552.067709	chr1	21933	29356	+	cat4	feature4	extra_col4
